vassilis /mobot_evaluation_data/databases/cvsp/acquisition/2015-12-09/2015-12-09-16-18-19-vassilis-set2_session1.bag /mobot_evaluation_data/databases/cvsp/acquisition/2015-12-09/2015-12-09-16-18-19-vassilis-set2_session1.srt
vassilis /mobot_evaluation_data/databases/cvsp/acquisition/2015-12-09/2015-12-09-16-09-37-vassilis-set1_session0.bag /mobot_evaluation_data/databases/cvsp/acquisition/2015-12-09/2015-12-09-16-09-37-vassilis-set1_session0.srt
nikos /mobot_evaluation_data/databases/cvsp/acquisition/2015-12-09/2015-12-09-17-27-06-nikos-set2_session0.bag /mobot_evaluation_data/databases/cvsp/acquisition/2015-12-09/2015-12-09-17-27-06-nikos-set2_session0.srt
isidoros /mobot_evaluation_data/databases/cvsp/acquisition/2015-12-09/2015-12-09-15-44-55-isidoros-set0_session1.bag /mobot_evaluation_data/databases/cvsp/acquisition/2015-12-09/2015-12-09-15-44-55-isidoros-set0_session1.srt
vassilis /mobot_evaluation_data/databases/cvsp/acquisition/2015-12-09/2015-12-09-16-12-16-vassilis-set1_session1.bag /mobot_evaluation_data/databases/cvsp/acquisition/2015-12-09/2015-12-09-16-12-16-vassilis-set1_session1.srt
vassilis /mobot_evaluation_data/databases/cvsp/acquisition/2015-12-09/2015-12-09-16-15-35-vassilis-set2_session0.bag /mobot_evaluation_data/databases/cvsp/acquisition/2015-12-09/2015-12-09-16-15-35-vassilis-set2_session0.srt
vassilis /mobot_evaluation_data/databases/cvsp/acquisition/2015-12-09/2015-12-09-16-23-39-vassilis-single_set0_session0.bag /mobot_evaluation_data/databases/cvsp/acquisition/2015-12-09/2015-12-09-16-23-39-vassilis-single_set0_session0.srt
isidoros /mobot_evaluation_data/databases/cvsp/acquisition/2015-12-09/2015-12-09-15-37-35-isidoros-single_set0_session0.bag /mobot_evaluation_data/databases/cvsp/acquisition/2015-12-09/2015-12-09-15-37-35-isidoros-single_set0_session0.srt
nikos /mobot_evaluation_data/databases/cvsp/acquisition/2015-12-09/2015-12-09-17-21-52-nikos-set3_session0.bag /mobot_evaluation_data/databases/cvsp/acquisition/2015-12-09/2015-12-09-17-21-52-nikos-set3_session0.srt
isidoros /mobot_evaluation_data/databases/cvsp/acquisition/2015-12-09/2015-12-09-15-55-12-isidoros-single_set1_session0.bag /mobot_evaluation_data/databases/cvsp/acquisition/2015-12-09/2015-12-09-15-55-12-isidoros-single_set1_session0.srt
isidoros /mobot_evaluation_data/databases/cvsp/acquisition/2015-12-09/2015-12-09-15-41-41-isidoros-set0_session0.bag /mobot_evaluation_data/databases/cvsp/acquisition/2015-12-09/2015-12-09-15-41-41-isidoros-set0_session0.srt
nikos /mobot_evaluation_data/databases/cvsp/acquisition/2015-12-09/2015-12-09-17-17-43-nikos-single_set0_session0.bag /mobot_evaluation_data/databases/cvsp/acquisition/2015-12-09/2015-12-09-17-17-43-nikos-single_set0_session0.srt
nikos /mobot_evaluation_data/databases/cvsp/acquisition/2015-12-09/2015-12-09-17-29-26-nikos-set2_session1.bag /mobot_evaluation_data/databases/cvsp/acquisition/2015-12-09/2015-12-09-17-29-26-nikos-set2_session1.srt
nikos /mobot_evaluation_data/databases/cvsp/acquisition/2015-12-09/2015-12-09-17-24-14-nikos-set3_session1.bag /mobot_evaluation_data/databases/cvsp/acquisition/2015-12-09/2015-12-09-17-24-14-nikos-set3_session1.srt

petros /mobot_evaluation_data/databases/cvsp/acquisition/2015-12-10/2015-12-10-11-25-30-petros-set1_session2.bag /mobot_evaluation_data/databases/cvsp/acquisition/2015-12-10/2015-12-10-11-25-30-petros-set1_session2.srt
despoina /mobot_evaluation_data/databases/cvsp/acquisition/2015-12-10/2015-12-10-15-37-20-despoina-single_set4.bag /mobot_evaluation_data/databases/cvsp/acquisition/2015-12-10/2015-12-10-15-37-20-despoina-single_set4.srt
george /mobot_evaluation_data/databases/cvsp/acquisition/2015-12-10/2015-12-10-14-32-31-george-set3_session2.bag /mobot_evaluation_data/databases/cvsp/acquisition/2015-12-10/2015-12-10-14-32-31-george-set3_session2.srt
niki /mobot_evaluation_data/databases/cvsp/acquisition/2015-12-10/2015-12-10-10-15-18-niki-set1_session2.bag /mobot_evaluation_data/databases/cvsp/acquisition/2015-12-10/2015-12-10-10-15-18-niki-set1_session2.srt
niki /mobot_evaluation_data/databases/cvsp/acquisition/2015-12-10/2015-12-10-10-18-39-niki-set2_session1.bag /mobot_evaluation_data/databases/cvsp/acquisition/2015-12-10/2015-12-10-10-18-39-niki-set2_session1.srt
petros /mobot_evaluation_data/databases/cvsp/acquisition/2015-12-10/2015-12-10-11-22-38-petros-set1_session1.bag /mobot_evaluation_data/databases/cvsp/acquisition/2015-12-10/2015-12-10-11-22-38-petros-set1_session1.srt
niki /mobot_evaluation_data/databases/cvsp/acquisition/2015-12-10/2015-12-10-10-22-09-niki-set2_session2.bag /mobot_evaluation_data/databases/cvsp/acquisition/2015-12-10/2015-12-10-10-22-09-niki-set2_session2.srt
despoina /mobot_evaluation_data/databases/cvsp/acquisition/2015-12-10/2015-12-10-15-33-41-despoina-set2_session2.bag /mobot_evaluation_data/databases/cvsp/acquisition/2015-12-10/2015-12-10-15-33-41-despoina-set2_session2.srt
petros /mobot_evaluation_data/databases/cvsp/acquisition/2015-12-10/2015-12-10-11-33-20-petros-set2_session2.bag /mobot_evaluation_data/databases/cvsp/acquisition/2015-12-10/2015-12-10-11-33-20-petros-set2_session2.srt
george /mobot_evaluation_data/databases/cvsp/acquisition/2015-12-10/2015-12-10-14-26-17-george-set4_session2.bag /mobot_evaluation_data/databases/cvsp/acquisition/2015-12-10/2015-12-10-14-26-17-george-set4_session2.srt
antigoni /mobot_evaluation_data/databases/cvsp/acquisition/2015-12-10/2015-12-10-10-45-03-antigoni-set3_session1.bag /mobot_evaluation_data/databases/cvsp/acquisition/2015-12-10/2015-12-10-10-45-03-antigoni-set3_session1.srt
petros /mobot_evaluation_data/databases/cvsp/acquisition/2015-12-10/2015-12-10-11-42-54-petros-single_set3.bag /mobot_evaluation_data/databases/cvsp/acquisition/2015-12-10/2015-12-10-11-42-54-petros-single_set3.srt
george /mobot_evaluation_data/databases/cvsp/acquisition/2015-12-10/2015-12-10-14-23-42-george-set4_session1.bag /mobot_evaluation_data/databases/cvsp/acquisition/2015-12-10/2015-12-10-14-23-42-george-set4_session1.srt
antigoni /mobot_evaluation_data/databases/cvsp/acquisition/2015-12-10/2015-12-10-10-48-09-antigoni-set3_session2.bag /mobot_evaluation_data/databases/cvsp/acquisition/2015-12-10/2015-12-10-10-48-09-antigoni-set3_session2.srt
despoina /mobot_evaluation_data/databases/cvsp/acquisition/2015-12-10/2015-12-10-15-25-55-despoina-set1_session1.bag /mobot_evaluation_data/databases/cvsp/acquisition/2015-12-10/2015-12-10-15-25-55-despoina-set1_session1.srt
george /mobot_evaluation_data/databases/cvsp/acquisition/2015-12-10/2015-12-10-14-36-12-george-single_set2.bag /mobot_evaluation_data/databases/cvsp/acquisition/2015-12-10/2015-12-10-14-36-12-george-single_set2.srt
george /mobot_evaluation_data/databases/cvsp/acquisition/2015-12-10/2015-12-10-14-29-42-george-set3_session1.bag /mobot_evaluation_data/databases/cvsp/acquisition/2015-12-10/2015-12-10-14-29-42-george-set3_session1.srt
antigoni /mobot_evaluation_data/databases/cvsp/acquisition/2015-12-10/2015-12-10-10-56-56-antigoni-set4_session2.bag /mobot_evaluation_data/databases/cvsp/acquisition/2015-12-10/2015-12-10-10-56-56-antigoni-set4_session2.srt
niki /mobot_evaluation_data/databases/cvsp/acquisition/2015-12-10/2015-12-10-10-27-45-niki-single_set1.bag /mobot_evaluation_data/databases/cvsp/acquisition/2015-12-10/2015-12-10-10-27-45-niki-single_set1.srt
antigoni /mobot_evaluation_data/databases/cvsp/acquisition/2015-12-10/2015-12-10-10-52-27-antigoni-set4_session1.bag /mobot_evaluation_data/databases/cvsp/acquisition/2015-12-10/2015-12-10-10-52-27-antigoni-set4_session1.srt
despoina /mobot_evaluation_data/databases/cvsp/acquisition/2015-12-10/2015-12-10-15-31-17-despoina-set2_session1.bag /mobot_evaluation_data/databases/cvsp/acquisition/2015-12-10/2015-12-10-15-31-17-despoina-set2_session1.srt
petros /mobot_evaluation_data/databases/cvsp/acquisition/2015-12-10/2015-12-10-11-29-34-petros-set2_session1.bag /mobot_evaluation_data/databases/cvsp/acquisition/2015-12-10/2015-12-10-11-29-34-petros-set2_session1.srt
antigoni /mobot_evaluation_data/databases/cvsp/acquisition/2015-12-10/2015-12-10-11-02-43-antigoni-single_set2.bag /mobot_evaluation_data/databases/cvsp/acquisition/2015-12-10/2015-12-10-11-02-43-antigoni-single_set2.srt
despoina /mobot_evaluation_data/databases/cvsp/acquisition/2015-12-10/2015-12-10-15-28-27-despoina-set1_session2.bag /mobot_evaluation_data/databases/cvsp/acquisition/2015-12-10/2015-12-10-15-28-27-despoina-set1_session2.srt
niki /mobot_evaluation_data/databases/cvsp/acquisition/2015-12-10/2015-12-10-10-12-14-niki-set1_session1.bag /mobot_evaluation_data/databases/cvsp/acquisition/2015-12-10/2015-12-10-10-12-14-niki-set1_session1.srt

giannis /mobot_evaluation_data/databases/cvsp/acquisition/2015-12-11/2015-12-11-14-45-24-giannis-single_augmented_set_1.bag /mobot_evaluation_data/databases/cvsp/acquisition/2015-12-11/2015-12-11-14-45-24-giannis-single_augmented_set_1.srt
nancy /mobot_evaluation_data/databases/cvsp/acquisition/2015-12-11/2015-12-11-13-20-45-nancy-augmented_set_3_session_2.bag /mobot_evaluation_data/databases/cvsp/acquisition/2015-12-11/2015-12-11-13-20-45-nancy-augmented_set_3_session_2.srt
thanasis /mobot_evaluation_data/databases/cvsp/acquisition/2015-12-11/2015-12-11-11-48-17-thanasis-single_augmented_set_2.bag /mobot_evaluation_data/databases/cvsp/acquisition/2015-12-11/2015-12-11-11-48-17-thanasis-single_augmented_set_2.srt
xanthi /mobot_evaluation_data/databases/cvsp/acquisition/2015-12-11/2015-12-11-15-35-00-xanthi-single_augmented_set_2.bag /mobot_evaluation_data/databases/cvsp/acquisition/2015-12-11/2015-12-11-15-35-00-xanthi-single_augmented_set_2.srt
giannis /mobot_evaluation_data/databases/cvsp/acquisition/2015-12-11/2015-12-11-14-32-47-giannis-augmented_set_1_session_2.bag /mobot_evaluation_data/databases/cvsp/acquisition/2015-12-11/2015-12-11-14-32-47-giannis-augmented_set_1_session_2.srt
nancy /mobot_evaluation_data/databases/cvsp/acquisition/2015-12-11/2015-12-11-13-29-04-nancy-augmented_set_4_session_1.bag /mobot_evaluation_data/databases/cvsp/acquisition/2015-12-11/2015-12-11-13-29-04-nancy-augmented_set_4_session_1.srt
xanthi /mobot_evaluation_data/databases/cvsp/acquisition/2015-12-11/2015-12-11-15-42-09-xanthi-single_augmented_set_4.bag /mobot_evaluation_data/databases/cvsp/acquisition/2015-12-11/2015-12-11-15-42-09-xanthi-single_augmented_set_4.srt
xanthi /mobot_evaluation_data/databases/cvsp/acquisition/2015-12-11/2015-12-11-15-16-25-xanthi-augmented_set_2_session_2.bag /mobot_evaluation_data/databases/cvsp/acquisition/2015-12-11/2015-12-11-15-16-25-xanthi-augmented_set_2_session_2.srt
xanthi /mobot_evaluation_data/databases/cvsp/acquisition/2015-12-11/2015-12-11-15-24-39-xanthi-augmented_set_3_session_1.bag /mobot_evaluation_data/databases/cvsp/acquisition/2015-12-11/2015-12-11-15-24-39-xanthi-augmented_set_3_session_1.srt
thanasis /mobot_evaluation_data/databases/cvsp/acquisition/2015-12-11/2015-12-11-12-22-35-thanasis-augmented_set_2_session_1.bag /mobot_evaluation_data/databases/cvsp/acquisition/2015-12-11/2015-12-11-12-22-35-thanasis-augmented_set_2_session_1.srt
giannis /mobot_evaluation_data/databases/cvsp/acquisition/2015-12-11/2015-12-11-14-52-38-giannis-single_augmented_set_3.bag /mobot_evaluation_data/databases/cvsp/acquisition/2015-12-11/2015-12-11-14-52-38-giannis-single_augmented_set_3.srt
thanasis /mobot_evaluation_data/databases/cvsp/acquisition/2015-12-11/2015-12-11-12-25-38-thanasis-augmented_set_2_session_2.bag /mobot_evaluation_data/databases/cvsp/acquisition/2015-12-11/2015-12-11-12-25-38-thanasis-augmented_set_2_session_2.srt
xanthi /mobot_evaluation_data/databases/cvsp/acquisition/2015-12-11/2015-12-11-15-39-03-xanthi-single_augmented_set_3.bag /mobot_evaluation_data/databases/cvsp/acquisition/2015-12-11/2015-12-11-15-39-03-xanthi-single_augmented_set_3.srt
giannis /mobot_evaluation_data/databases/cvsp/acquisition/2015-12-11/2015-12-11-14-28-24-giannis-augmented_set_1_session_1.bag /mobot_evaluation_data/databases/cvsp/acquisition/2015-12-11/2015-12-11-14-28-24-giannis-augmented_set_1_session_1.srt
thanasis /mobot_evaluation_data/databases/cvsp/acquisition/2015-12-11/2015-12-11-11-55-21-thanasis-single_augmented_set_3.bag /mobot_evaluation_data/databases/cvsp/acquisition/2015-12-11/2015-12-11-11-55-21-thanasis-single_augmented_set_3.srt
giannis /mobot_evaluation_data/databases/cvsp/acquisition/2015-12-11/2015-12-11-14-38-10-giannis-augmented_set_2_session_1.bag /mobot_evaluation_data/databases/cvsp/acquisition/2015-12-11/2015-12-11-14-38-10-giannis-augmented_set_2_session_1.srt
thanasis /mobot_evaluation_data/databases/cvsp/acquisition/2015-12-11/2015-12-11-12-01-08-thanasis-augmented_set_1_session_1.bag /mobot_evaluation_data/databases/cvsp/acquisition/2015-12-11/2015-12-11-12-01-08-thanasis-augmented_set_1_session_1.srt
giannis /mobot_evaluation_data/databases/cvsp/acquisition/2015-12-11/2015-12-11-14-48-37-giannis-single_augmented_set_2.bag /mobot_evaluation_data/databases/cvsp/acquisition/2015-12-11/2015-12-11-14-48-37-giannis-single_augmented_set_2.srt
thanasis /mobot_evaluation_data/databases/cvsp/acquisition/2015-12-11/2015-12-11-12-03-44-thanasis-augmented_set_1_session_2.bag /mobot_evaluation_data/databases/cvsp/acquisition/2015-12-11/2015-12-11-12-03-44-thanasis-augmented_set_1_session_2.srt
xanthi /mobot_evaluation_data/databases/cvsp/acquisition/2015-12-11/2015-12-11-15-13-33-xanthi-augmented_set_2_session_1.bag /mobot_evaluation_data/databases/cvsp/acquisition/2015-12-11/2015-12-11-15-13-33-xanthi-augmented_set_2_session_1.srt
nancy /mobot_evaluation_data/databases/cvsp/acquisition/2015-12-11/2015-12-11-13-44-38-nancy-single_augmented_set_3.bag /mobot_evaluation_data/databases/cvsp/acquisition/2015-12-11/2015-12-11-13-44-38-nancy-single_augmented_set_3.srt
thanasis /mobot_evaluation_data/databases/cvsp/acquisition/2015-12-11/2015-12-11-11-45-17-thanasis-single_augmented_set_1.bag /mobot_evaluation_data/databases/cvsp/acquisition/2015-12-11/2015-12-11-11-45-17-thanasis-single_augmented_set_1.srt
nancy /mobot_evaluation_data/databases/cvsp/acquisition/2015-12-11/2015-12-11-13-16-52-nancy-augmented_set_3_session_1.bag /mobot_evaluation_data/databases/cvsp/acquisition/2015-12-11/2015-12-11-13-16-52-nancy-augmented_set_3_session_1.srt
xanthi /mobot_evaluation_data/databases/cvsp/acquisition/2015-12-11/2015-12-11-15-27-35-xanthi-augmented_set_3_session_2.bag /mobot_evaluation_data/databases/cvsp/acquisition/2015-12-11/2015-12-11-15-27-35-xanthi-augmented_set_3_session_2.srt
nancy /mobot_evaluation_data/databases/cvsp/acquisition/2015-12-11/2015-12-11-13-36-52-nancy-augmented_set_4_session_2.bag /mobot_evaluation_data/databases/cvsp/acquisition/2015-12-11/2015-12-11-13-36-52-nancy-augmented_set_4_session_2.srt
giannis /mobot_evaluation_data/databases/cvsp/acquisition/2015-12-11/2015-12-11-14-40-39-giannis-augmented_set_2_session_2.bag /mobot_evaluation_data/databases/cvsp/acquisition/2015-12-11/2015-12-11-14-40-39-giannis-augmented_set_2_session_2.srt
nancy /mobot_evaluation_data/databases/cvsp/acquisition/2015-12-11/2015-12-11-13-52-45-nancy-single_augmented_set_3.bag /mobot_evaluation_data/databases/cvsp/acquisition/2015-12-11/2015-12-11-13-52-45-nancy-single_augmented_set_3.srt
nancy /mobot_evaluation_data/databases/cvsp/acquisition/2015-12-11/2015-12-11-13-49-05-nancy-single_augmented_set_1.bag /mobot_evaluation_data/databases/cvsp/acquisition/2015-12-11/2015-12-11-13-49-05-nancy-single_augmented_set_1.srt

pm /mobot_evaluation_data/databases/cvsp/acquisition/2015-12-14/2015-12-14-14-08-41-p_mar-single_augmented_set_1.bag /mobot_evaluation_data/databases/cvsp/acquisition/2015-12-14/2015-12-14-14-08-41-p_mar-single_augmented_set_1.srt
pm /mobot_evaluation_data/databases/cvsp/acquisition/2015-12-14/2015-12-14-14-11-46-p_mar-single_augmented_set_2.bag /mobot_evaluation_data/databases/cvsp/acquisition/2015-12-14/2015-12-14-14-11-46-p_mar-single_augmented_set_2.srt
pm /mobot_evaluation_data/databases/cvsp/acquisition/2015-12-14/2015-12-14-14-14-46-p_mar-single_augmented_set_3.bag /mobot_evaluation_data/databases/cvsp/acquisition/2015-12-14/2015-12-14-14-14-46-p_mar-single_augmented_set_3.srt
pm /mobot_evaluation_data/databases/cvsp/acquisition/2015-12-14/2015-12-14-14-20-08-p_mar-augmented_set_1_session_1.bag /mobot_evaluation_data/databases/cvsp/acquisition/2015-12-14/2015-12-14-14-20-08-p_mar-augmented_set_1_session_1.srt
pm /mobot_evaluation_data/databases/cvsp/acquisition/2015-12-14/2015-12-14-14-22-48-p_mar-augmented_set_1_session_2.bag /mobot_evaluation_data/databases/cvsp/acquisition/2015-12-14/2015-12-14-14-22-48-p_mar-augmented_set_1_session_2.srt
pm /mobot_evaluation_data/databases/cvsp/acquisition/2015-12-14/2015-12-14-14-27-45-p_mar-augmented_set_2_session_1.bag /mobot_evaluation_data/databases/cvsp/acquisition/2015-12-14/2015-12-14-14-27-45-p_mar-augmented_set_2_session_1.srt
pm /mobot_evaluation_data/databases/cvsp/acquisition/2015-12-14/2015-12-14-14-30-09-p_mar-augmented_set_2_session_2.bag /mobot_evaluation_data/databases/cvsp/acquisition/2015-12-14/2015-12-14-14-30-09-p_mar-augmented_set_2_session_2.srt

